{
  "$schema": "http://json.schemastore.org/launchsettings.json",
  "profiles": {
    "SeoulAir.Analytics.Api": {
      "commandName": "Project",
      "launchBrowser": false,
      "launchUrl": "index.html",
      "environmentVariables": {
        "ASPNETCORE_ENVIRONMENT": "Development"
      },
      "applicationUrl": "http://localhost:5700"
    }
  }
}